^C:\USERS\ЕЛЕНА\DESKTOP\CPL_LOADER\APPLET\APPLET\PCH.CPP
C:\USERS\Елена\DESKTOP\CPL_LOADER\APPLET\APPLET\DEBUG\APPLET.PCH
C:\USERS\Елена\DESKTOP\CPL_LOADER\APPLET\APPLET\DEBUG\VC142.PDB
C:\USERS\Елена\DESKTOP\CPL_LOADER\APPLET\APPLET\DEBUG\VC142.IDB
C:\USERS\Елена\DESKTOP\CPL_LOADER\APPLET\APPLET\DEBUG\PCH.OBJ
^C:\USERS\ЕЛЕНА\DESKTOP\CPL_LOADER\APPLET\APPLET\APPLET.CPP|C:\USERS\ЕЛЕНА\DESKTOP\CPL_LOADER\APPLET\APPLET\INTERFACE.CPP|C:\USERS\ЕЛЕНА\DESKTOP\CPL_LOADER\APPLET\APPLET\STDAFX.CPP
C:\USERS\Елена\DESKTOP\CPL_LOADER\APPLET\APPLET\DEBUG\VC142.PDB
C:\USERS\Елена\DESKTOP\CPL_LOADER\APPLET\APPLET\DEBUG\VC142.IDB
C:\USERS\Елена\DESKTOP\CPL_LOADER\APPLET\APPLET\DEBUG\STDAFX.OBJ
C:\USERS\Елена\DESKTOP\CPL_LOADER\APPLET\APPLET\DEBUG\INTERFACE.OBJ
C:\USERS\Елена\DESKTOP\CPL_LOADER\APPLET\APPLET\DEBUG\APPLET.OBJ
^C:\USERS\ЕЛЕНА\DESKTOP\CPL_LOADER\APPLET\APPLET\APPLET.CPP
C:\USERS\ЕЛЕНА\DESKTOP\CPL_LOADER\APPLET\APPLET\DEBUG\VC142.PDB
^C:\USERS\ЕЛЕНА\DESKTOP\CPL_LOADER\APPLET\APPLET\INTERFACE.CPP
C:\USERS\ЕЛЕНА\DESKTOP\CPL_LOADER\APPLET\APPLET\DEBUG\VC142.PDB
^C:\USERS\ЕЛЕНА\DESKTOP\CPL_LOADER\APPLET\APPLET\STDAFX.CPP
C:\USERS\ЕЛЕНА\DESKTOP\CPL_LOADER\APPLET\APPLET\DEBUG\VC142.PDB
